[
  {
    "title": "PB",
    "description": "Gipsies",
    "image": "ki9jR_Sf1xfXWYJ2Abi__.jpeg",
    "datetime": "2022-02-12T14:40:46.922Z",
    "id": "1yos4j_xjD_3SNsWnzfBD"
  },
  {
    "title": "PB",
    "description": "Gsy",
    "image": "ZCqnQNGM5gLhJQgQ1jq3H.jpeg",
    "datetime": "2022-02-12T14:49:08.780Z",
    "id": "JvzICBOZnQbcR2KvOAcDG"
  }
]